spatial_krige
…
# add RMSE, predictions, and variance to gt table
rmse_tibble = tibble(month_year = cols,
                     rmse = rmses,
                     mean_predicted_o3 = preds,
                     mean_variance_o3 = vars)
rmse_tibble

## # A tibble: 28 x 4
##    month_year rmse      mean_predicted_o3 mean_variance_o3
##    <chr>      <list>    <list>            <list>          
##  1 Apr.2018   <dbl [1]> <dbl [1]>         <dbl [1]>       
##  2 Apr.2019   <dbl [1]> <dbl [1]>         <dbl [1]>       
##  3 Apr.2020   <dbl [1]> <dbl [1]>         <dbl [1]>       
##  4 Apr.2021   <dbl [1]> <dbl [1]>         <dbl [1]>       
##  5 May.2018   <dbl [1]> <dbl [1]>         <dbl [1]>       
##  6 May.2019   <dbl [1]> <dbl [1]>         <dbl [1]>       
##  7 May.2020   <dbl [1]> <dbl [1]>         <dbl [1]>       
##  8 May.2021   <dbl [1]> <dbl [1]>         <dbl [1]>       
##  9 Jun.2018   <dbl [1]> <dbl [1]>         <dbl [1]>       
## 10 Jun.2019   <dbl [1]> <dbl [1]>         <dbl [1]>       
## # ... with 18 more rows
…
